# All MIUI blobs below are extracted from surya V14.0.1.0.SJGMIXM

# Camera configs - From MIUI
vendor/etc/camera/102_SummerDay.png|e27c1ad14c763cbc0159aa5a0357b934cbc16ced
vendor/etc/camera/103_Fantasy.png|0eb52c60f767c4a9b26b22f4ee35ec646545a123
vendor/etc/camera/104_Meet.png|6311603a50532eece3f92cce50898a29c1d4995c
vendor/etc/camera/105_WindSing.png|8d07722a63e5619fbd3b293078ae67dfe271a72c
vendor/etc/camera/106_Lost.png|61a35b9eb3c6286357ba213cfce0b3e1fc112fd6
vendor/etc/camera/107_Central.png|64c1e291c873ff7715ee9017c3a0d6cae48a9b6a
vendor/etc/camera/108_NorthernEurope.png|b6a0847fcf1d87d5db0cae2c9a589b9780e1cbbe
vendor/etc/camera/109_Rome.png|d5eb2a236ff03ef1a18a06323ed7ea1e10d3216f
vendor/etc/camera/110_BlackGold.png|bf0b84c9cc417a78f38fa01606160a80d0fda3d2
vendor/etc/camera/111_GreenOrange.png|7ccb8c48068296275ab440129750cddc47e26f4d
vendor/etc/camera/112_Cyberpunk.png|a8245aafb5cf4a2bf2aa1ed58ad35dc3140607bb
vendor/etc/camera/113_BlackIce.png|00bb1b9b499aca960475b79414b5a076324c8b46

# MiSys - from MIUI
system/etc/permissions/vendor.xiaomi.hardware.misys-V1.0-java-permission.xml|b0e963547c0e5f133f3505a8100a1a07ca9cbc13
system/etc/permissions/vendor.xiaomi.hardware.misys-V2.0-java-permission.xml|db27e4291ce101c2f4cc34e5d58f8a74f7df5003
system/etc/permissions/vendor.xiaomi.hardware.misys.V3_0-permission.xml|9fe4c93229d3a6d2fbec313159ba3c0d0b8b69be
system/framework/vendor.xiaomi.hardware.misys-V1.0-java.jar|0f07da3ce7b035e727996e79a9819dec57af3e1e
system/framework/vendor.xiaomi.hardware.misys-V2.0-java.jar|eb9b904c0fdb0ebf06b9b6cbee9560ab23341d08
system/framework/vendor.xiaomi.hardware.misys.V3_0.jar|9ebb257c278d3481881e85b65d2b090237e29462
system/lib64/libmisys_jni.so|60ceb922cb750c718ea64ab7c1cd4b89a245c7c8
system/lib64/vendor.xiaomi.hardware.misys@1.0.so|eccefde6be179f51a21cdb604c83186a508a1b9f
system/lib64/vendor.xiaomi.hardware.misys@2.0.so|e6d3ad73d5fade6dd9d69971ef4de93d2d1da0a8
system/lib64/vendor.xiaomi.hardware.misys@3.0.so|1c3a59312d4a846c6851e036b37be710d32fb7c5
system/lib64/vendor.xiaomi.hardware.misys@4.0.so|da2f105c64a0f0ecae9e80928e871ac123c42ea7
vendor/bin/hw/vendor.xiaomi.hardware.misys@1.0-service|3565360a8df875c71376d4bf354602053aaf8833
vendor/bin/hw/vendor.xiaomi.hardware.misys@2.0-service|aeb7e699618ea098eedd8850774f73b673f17a32
vendor/bin/hw/vendor.xiaomi.hardware.misys@3.0-service|7a084be3c42aa47bd3dfee1c1f6ec61498bfa6e1
vendor/bin/hw/vendor.xiaomi.hardware.misys@4.0-service|b1155dffb7077e549bc4f8c5a054f7100bfb1e1b
vendor/etc/init/vendor.xiaomi.hardware.misys@1.0-service.rc|99d376dd6f9af62f9c065e68f6873989c680aa3f
vendor/etc/init/vendor.xiaomi.hardware.misys@2.0-service.rc|e234eba5115da4fda9e82d39634a95ddacf0c0f2
vendor/etc/init/vendor.xiaomi.hardware.misys@3.0-service.rc|b2097e5ba297fb88d7133e4a33ba7ced416d70c0
vendor/etc/init/vendor.xiaomi.hardware.misys@4.0-service.rc|28ab992f19bd554b685c35ad6cb3f3facece3c6a
-vendor/etc/vintf/manifest/vendor.xiaomi.hardware.misys@1.0.xml|07adcadc52bd130b65b20803c26c6e59c4b9d49b
-vendor/etc/vintf/manifest/vendor.xiaomi.hardware.misys@2.0.xml|beb350e77a9b9fe032cce12d93d293a24d02e256
-vendor/etc/vintf/manifest/vendor.xiaomi.hardware.misys@3.0.xml|2071a39b08a28a1038b34df9dca171271cbd968c
-vendor/etc/vintf/manifest/vendor.xiaomi.hardware.misys@4.0.xml|554817231d8d2db5bb5a6793aa46cefd51e89c88
vendor/lib64/hw/vendor.xiaomi.hardware.misys@1.0-impl.so|fb95edae43ff08f926456d26fb630008826f2fc0
vendor/lib64/hw/vendor.xiaomi.hardware.misys@2.0-impl.so|f19248829c7b5e70545af89261ec66d728809f85
vendor/lib64/hw/vendor.xiaomi.hardware.misys@3.0-impl.so|40e5d6449a5bf7600287c185ad2f9da90d936cea
vendor/lib64/hw/vendor.xiaomi.hardware.misys@4.0-impl.so|00248abf717c6a3d1ca08eebe49dae3c9ebfdac0
vendor/lib64/libcheckpid.so|a6d25e6454cee95c694e563ac5548a9b5981a772
vendor/lib64/liblogwrap_vendor.so|f3e94b0a7116e20ef1fcbaae3339139251076757
vendor/lib64/vendor.xiaomi.hardware.misys@1.0.so|d20ab76005d50db110a78c1d892e562ffe5395ba
vendor/lib64/vendor.xiaomi.hardware.misys@2.0.so|55326adae329775eb8147b8c476d12734f12ff21
vendor/lib64/vendor.xiaomi.hardware.misys@3.0.so|dade9711628a2c670901a5f5903af80a44e53663
vendor/lib64/vendor.xiaomi.hardware.misys@4.0.so|cd52e318ded1951c029a5857ec848afb5266ea38

# System - from MIUI
system/etc/public.libraries-xiaomi.txt|a09ea720d0d058074b728c96ccdb1a755426041c

# System - from CRdroid repository
lib64/android.hardware.camera.common@1.0.so|587fd9ac5502844a9904cdf39583ba9580578a3e
lib64/libSNPE.so|f3ffab1527763de07abd6ea4889673574b3b1a48
lib64/libarcsoft_single_chart_calibration.so|cb37de29857fe1703530de6e5a54038a9620ddcd
lib64/libcamera_algoup_jni.xiaomi.so|116a0c7c3ff1a717664d41f722dc3b15c976f7be
lib64/libcamera_mianode_jni.xiaomi.so|67ccf23811282e9a20b8e90199eb6c6a95d3cf6d
lib64/libdoc_photo.so|e09aa3436d3fe1a6e4b37d9a922eae0a78d1760e
lib64/libdoc_photo_c++_shared.so|8bd494c3b1da5d250e0dc81231ea094fd0bccf88
lib64/libhidltransport.so|f5b73785c146d4ea206caf331f49b60a0f19800f
lib64/libmotion_photo.so|1d58550ec98df90d585af82ede89db4d4504decd
lib64/libmotion_photo_c++_shared.so|8bd494c3b1da5d250e0dc81231ea094fd0bccf88
lib64/libmotion_photo_mace.so|ab99cb01df8996ae250f718113bc97031f603a6f
lib64/libsymphony-cpu.so|521e63af19b3fd51b12bb48f95b3f58a90068cc2
priv-app/MiuiCamera/lib/arm64/libcamera_algoup_jni.xiaomi.so|9977bceb5d14e4906d83c23642e04b213337c08c
priv-app/MiuiCamera/lib/arm64/libcamera_mianode_jni.xiaomi.so|5bfc999bb96aa6270a959316a7c866f6625ecc32

# MiuiCamera - from LEICA
priv-app/MiuiCamera/MiuiCamera.apk;OVERRIDES=Snap,Aperture,GoogleCameraGo,Camera2;PRESIGNED|056ef492eb518c0ecf0bcf6cfe794e94a40c1f43

# Vendor
vendor/lib64/libflaw.so
